{
  "project_info": {
    "project_number": "523972624596",
    "firebase_url": "https://ligion-props.firebaseio.com",
    "project_id": "ligion-props",
    "storage_bucket": "ligion-props.appspot.com"
  },
  "client": [
    {
      "client_info": {
        "mobilesdk_app_id": "1:523972624596:android:28f9e8ec2b65cc2712fb41",
        "android_client_info": {
          "package_name": "com.ligion.properties"
        }
      },
      "oauth_client": [
        {
          "client_id": "523972624596-9a2f4c6cngc12mguqdvhfgcvlqugfcc1.apps.googleusercontent.com",
          "client_type": 3
        }
      ],
      "api_key": [
        {
          "current_key": "AIzaSyAMffhgmY55RQ-_tcAtO6dSb7hUbTe-d4A"
        }
      ],
      "services": {
        "appinvite_service": {
          "other_platform_oauth_client": [
            {
              "client_id": "523972624596-9a2f4c6cngc12mguqdvhfgcvlqugfcc1.apps.googleusercontent.com",
              "client_type": 3
            },
            {
              "client_id": "523972624596-0sfdh1ju4vjuk1qc6ohe7m3ua33gn1ai.apps.googleusercontent.com",
              "client_type": 2,
              "ios_info": {
                "bundle_id": "com.ligion.properties"
              }
            }
          ]
        }
      }
    }
  ],
  "configuration_version": "1"
}